%YAML 1.1
%TAG !u! tag:unity3d.com,2011:
--- !u!74 &7400000
AnimationClip:
  m_ObjectHideFlags: 0
  m_PrefabParentObject: {fileID: 0}
  m_PrefabInternal: {fileID: 0}
  m_Name: TantIdle
  serializedVersion: 6
  m_Legacy: 0
  m_Compressed: 0
  m_UseHighQualityCurve: 1
  m_RotationCurves: []
  m_CompressedRotationCurves: []
  m_EulerCurves: []
  m_PositionCurves: []
  m_ScaleCurves: []
  m_FloatCurves: []
  m_PPtrCurves:
  - curve:
    - time: 0
      value: {fileID: 21300000, guid: be36e473a0104ab418c6be2ac4e96044, type: 3}
    - time: 0.083333336
      value: {fileID: 21300000, guid: 0fa3196b0264f83479945a4faf211509, type: 3}
    - time: 0.16666667
      value: {fileID: 21300000, guid: e0fb82e6b15ea7743a9b71652af032c8, type: 3}
    - time: 0.25
      value: {fileID: 21300000, guid: 11e82b6fd142e8a4dae736eb4c9da5df, type: 3}
    - time: 0.33333334
      value: {fileID: 21300000, guid: 3fc6c545e1d659a47a3d02d71caf0817, type: 3}
    - time: 0.41666666
      value: {fileID: 21300000, guid: aa5922a1dcd603c41bdc8f3baf35bab0, type: 3}
    - time: 0.5
      value: {fileID: 21300000, guid: 7f3287fb5f75c3144bd8239b4b71e584, type: 3}
    - time: 0.5833333
      value: {fileID: 21300000, guid: dbcabcd5f47022b4e9b429cc6f89dbc7, type: 3}
    - time: 0.6666667
      value: {fileID: 21300000, guid: c3b5bd8e48b695a4e8c306a2b02d2972, type: 3}
    - time: 0.75
      value: {fileID: 21300000, guid: 49d264a4643721241a497b81c72776d0, type: 3}
    - time: 0.8333333
      value: {fileID: 21300000, guid: de175e1e6ffab174cb5129679cc83482, type: 3}
    - time: 0.9166667
      value: {fileID: 21300000, guid: 95ff1c13f125f9d479a52f718f7a6bae, type: 3}
    - time: 1
      value: {fileID: 21300000, guid: 99307413782869840991df835fd6469d, type: 3}
    - time: 1.0833334
      value: {fileID: 21300000, guid: d5b017e8ba2514e49ba986f8f4014642, type: 3}
    - time: 1.1666666
      value: {fileID: 21300000, guid: 2c6935efa3dd2c5449348c1bd4362d9b, type: 3}
    - time: 1.25
      value: {fileID: 21300000, guid: 3ad0b122d831e7c4baf7d8179fbdba5d, type: 3}
    - time: 1.3333334
      value: {fileID: 21300000, guid: f3a5fbfa2194f9d4c8edb1e76f6f9733, type: 3}
    - time: 1.4166666
      value: {fileID: 21300000, guid: 80a759d40770b3a469d2581b0aadf0a5, type: 3}
    - time: 1.5
      value: {fileID: 21300000, guid: c458c5433b4d55c4da7b73ecaeb24273, type: 3}
    - time: 1.5833334
      value: {fileID: 21300000, guid: ee3c0caa6acd951409065c60ce0bdbb8, type: 3}
    - time: 1.6666666
      value: {fileID: 21300000, guid: 63e53fdef233f2347a7029c50effebc2, type: 3}
    - time: 1.75
      value: {fileID: 21300000, guid: eb7fd62ca9fea3444ba0378be7833c32, type: 3}
    - time: 1.8333334
      value: {fileID: 21300000, guid: af5bdac4f7a2bb047819fdb34c3b2482, type: 3}
    - time: 1.9166666
      value: {fileID: 21300000, guid: fe1336dbc9e004049a43a593e7884e25, type: 3}
    - time: 2
      value: {fileID: 21300000, guid: 4aa1604a6ba89a84e9f0f76e70c780ca, type: 3}
    - time: 2.0833333
      value: {fileID: 21300000, guid: 25f5a245af8f8ac469088dd9d48ec380, type: 3}
    - time: 2.1666667
      value: {fileID: 21300000, guid: 44a1d41bd1102ef4099610c8029e8893, type: 3}
    - time: 2.25
      value: {fileID: 21300000, guid: 1998e45768dd7354e90298fc86df4fe8, type: 3}
    - time: 2.3333333
      value: {fileID: 21300000, guid: 8dc8ca2fc3651b64ab439b639bc9aa26, type: 3}
    - time: 2.4166667
      value: {fileID: 21300000, guid: 9b184ce45fb5764478b6dc798e7b6b99, type: 3}
    - time: 2.5
      value: {fileID: 21300000, guid: 6d45c75f1a824cd4b82a9cd94e493a23, type: 3}
    - time: 2.5833333
      value: {fileID: 21300000, guid: c78fcbfcc2354834d8794728721a9d39, type: 3}
    - time: 2.6666667
      value: {fileID: 21300000, guid: 90913f16ce8f11d47b334f3c4ea688c5, type: 3}
    - time: 2.75
      value: {fileID: 21300000, guid: adc2a409e9f83d446be1861c9c52a5d1, type: 3}
    - time: 2.8333333
      value: {fileID: 21300000, guid: 2e4a2daeae8f5e04dab11b8bc04130a4, type: 3}
    - time: 2.9166667
      value: {fileID: 21300000, guid: f5f7f3a4edb78f947b5647cd503bd60f, type: 3}
    - time: 3
      value: {fileID: 21300000, guid: a6e7a0668c6bc0040bd3823006df2499, type: 3}
    - time: 3.0833333
      value: {fileID: 21300000, guid: ab05d0caf9bd0eb4fa650d1a141dc9ff, type: 3}
    - time: 3.1666667
      value: {fileID: 21300000, guid: cd5d3da0973364b439e4178da726b605, type: 3}
    - time: 3.25
      value: {fileID: 21300000, guid: bf76e94ecb671a043bfcd9a0b9496d2f, type: 3}
    - time: 3.3333333
      value: {fileID: 21300000, guid: 1df40c3d2bf598647a5f32b748da3335, type: 3}
    - time: 3.4166667
      value: {fileID: 21300000, guid: 3f0d5b13c3ef2314ba43b42a8a0dd62d, type: 3}
    - time: 3.5
      value: {fileID: 21300000, guid: 73d0f56a806bdca419fa57ec10e68631, type: 3}
    - time: 3.5833333
      value: {fileID: 21300000, guid: 281f53efe041ff44b93db02866640799, type: 3}
    - time: 3.6666667
      value: {fileID: 21300000, guid: 7c24b886a475a2141873ff1ab28dd2a1, type: 3}
    - time: 3.75
      value: {fileID: 21300000, guid: bb9aaf87120183c45801de890ee3fbd8, type: 3}
    - time: 3.8333333
      value: {fileID: 21300000, guid: e009bb84707942c4ab077f2185a355e5, type: 3}
    - time: 3.9166667
      value: {fileID: 21300000, guid: c80297b4f61a36a468eef3409655bb13, type: 3}
    - time: 4
      value: {fileID: 21300000, guid: e9cb6534d570626498e80ed2db1a7950, type: 3}
    - time: 4.0833335
      value: {fileID: 21300000, guid: 8d73983c51822b94eafe4193e02969f3, type: 3}
    - time: 4.1666665
      value: {fileID: 21300000, guid: 29433aa9b3fe9574c82f84b645c6eea2, type: 3}
    - time: 4.25
      value: {fileID: 21300000, guid: 6994ca494e913c947bbf8b46b1c11e1a, type: 3}
    - time: 4.3333335
      value: {fileID: 21300000, guid: 9b7748a5dc0c23d429fad7c1b58010b8, type: 3}
    - time: 4.4166665
      value: {fileID: 21300000, guid: f98fdf25d50cc864782c2f965634891a, type: 3}
    - time: 4.5
      value: {fileID: 21300000, guid: d0f3c0754b2a6f7419bf08d197471eed, type: 3}
    - time: 4.5833335
      value: {fileID: 21300000, guid: 42daa2ff56f95504499933df246f714f, type: 3}
    - time: 4.6666665
      value: {fileID: 21300000, guid: e481f90c3575aa34083a3fae0a2bb8af, type: 3}
    - time: 4.75
      value: {fileID: 21300000, guid: ee7157b0191d0624684db2f69b067a5a, type: 3}
    - time: 4.8333335
      value: {fileID: 21300000, guid: efdf0545b1a99b74ab92a29a1b85237f, type: 3}
    - time: 4.9166665
      value: {fileID: 21300000, guid: 9538fa026aaabde409724988938607bd, type: 3}
    - time: 5
      value: {fileID: 21300000, guid: 8ea686d6d6352ca44903c98ba24bc849, type: 3}
    - time: 5.0833335
      value: {fileID: 21300000, guid: 6095393d8f4838840a2ce62bd1e24c76, type: 3}
    - time: 5.1666665
      value: {fileID: 21300000, guid: 7ec3a9d847e5a9549acb1e9af7718e6c, type: 3}
    - time: 5.25
      value: {fileID: 21300000, guid: 538d04cfa6e7272489de37b7b24351db, type: 3}
    - time: 5.3333335
      value: {fileID: 21300000, guid: 0fa1df57a95225b429979f4642894046, type: 3}
    - time: 5.4166665
      value: {fileID: 21300000, guid: 6ccc35232ca35b845b4bd1a8e113e3b6, type: 3}
    - time: 5.5
      value: {fileID: 21300000, guid: 3320cdc8279acea4eb6e13f0005a743d, type: 3}
    - time: 5.5833335
      value: {fileID: 21300000, guid: 443c72533121d2f4986fb4af1b984ab4, type: 3}
    - time: 5.6666665
      value: {fileID: 21300000, guid: 024478b0292ab874e88164b31c0cf61f, type: 3}
    - time: 5.75
      value: {fileID: 21300000, guid: 62cae1fe44a57f04aaecf2c80be65f77, type: 3}
    - time: 5.8333335
      value: {fileID: 21300000, guid: b0d3ae726e2c9c84eb525f6535485ee9, type: 3}
    - time: 5.9166665
      value: {fileID: 21300000, guid: 1bb75d332e2eb0142b7c34cd09829eea, type: 3}
    - time: 6
      value: {fileID: 21300000, guid: c1675a13d0ba746469b706e817d4f827, type: 3}
    - time: 6.0833335
      value: {fileID: 21300000, guid: 5d8b17cd8cb4a2346a6ca1a0fa4fc95b, type: 3}
    - time: 6.1666665
      value: {fileID: 21300000, guid: a0f53b1016d41df4080b46723751218b, type: 3}
    - time: 6.25
      value: {fileID: 21300000, guid: a1042e0b62e82564c86135e38012df9e, type: 3}
    - time: 6.3333335
      value: {fileID: 21300000, guid: c8c4f1d1194a47040b240995d7227598, type: 3}
    - time: 6.4166665
      value: {fileID: 21300000, guid: 27b4f8f54db9f9447a29ab15474813fd, type: 3}
    - time: 6.5
      value: {fileID: 21300000, guid: 862383b819b600c46a45585483f949fb, type: 3}
    - time: 6.5833335
      value: {fileID: 21300000, guid: 9b2ba3d45062e2c4680a70cbff582db0, type: 3}
    - time: 6.6666665
      value: {fileID: 21300000, guid: 6cec021dcb3a90d4f96d2716751f3619, type: 3}
    - time: 6.75
      value: {fileID: 21300000, guid: 5869f28582227404eba5ca5d001477e2, type: 3}
    - time: 6.8333335
      value: {fileID: 21300000, guid: 965a775bfe9a6c24f8e258b0a7ada870, type: 3}
    - time: 6.9166665
      value: {fileID: 21300000, guid: ff31794e47b5faa4194403fe8b064a1a, type: 3}
    - time: 7
      value: {fileID: 21300000, guid: a54cfdb7a4c21f1418291b1ec50a19c0, type: 3}
    - time: 7.0833335
      value: {fileID: 21300000, guid: aa0160a7d5a429f41be78678611f0ea9, type: 3}
    - time: 7.1666665
      value: {fileID: 21300000, guid: 15b704ec5b125e14a91c022f038c4c95, type: 3}
    - time: 7.25
      value: {fileID: 21300000, guid: 61eead3dc89be3b4baae3ddd53ea4f08, type: 3}
    - time: 7.3333335
      value: {fileID: 21300000, guid: 84399d28ee85d5d44af35074ac8bd179, type: 3}
    - time: 7.4166665
      value: {fileID: 21300000, guid: 5e23a6f05c34f4442bee27edcd6407d2, type: 3}
    - time: 7.5
      value: {fileID: 21300000, guid: d00382b6f43ede3408dfced1f4f65410, type: 3}
    - time: 7.5833335
      value: {fileID: 21300000, guid: af96b894e9f54914cade903a74d75a10, type: 3}
    - time: 7.6666665
      value: {fileID: 21300000, guid: 10c27c5b47bce6545a0bc258f357af7e, type: 3}
    - time: 7.75
      value: {fileID: 21300000, guid: a09c7a081435f4c4695dc24f6a0a81bd, type: 3}
    - time: 7.8333335
      value: {fileID: 21300000, guid: 6ffb13c681b0c9c4d8018556eb68fe32, type: 3}
    - time: 7.9166665
      value: {fileID: 21300000, guid: 39d082d2a7a7bec4491e4af454891fd5, type: 3}
    - time: 8
      value: {fileID: 21300000, guid: 8d3edd63939491d4fb31ff83d1fc0faa, type: 3}
    attribute: m_Sprite
    path: 
    classID: 212
    script: {fileID: 0}
  m_SampleRate: 12
  m_WrapMode: 0
  m_Bounds:
    m_Center: {x: 0, y: 0, z: 0}
    m_Extent: {x: 0, y: 0, z: 0}
  m_ClipBindingConstant:
    genericBindings:
    - serializedVersion: 2
      path: 0
      attribute: 0
      script: {fileID: 0}
      typeID: 212
      customType: 23
      isPPtrCurve: 1
    pptrCurveMapping:
    - {fileID: 21300000, guid: be36e473a0104ab418c6be2ac4e96044, type: 3}
    - {fileID: 21300000, guid: 0fa3196b0264f83479945a4faf211509, type: 3}
    - {fileID: 21300000, guid: e0fb82e6b15ea7743a9b71652af032c8, type: 3}
    - {fileID: 21300000, guid: 11e82b6fd142e8a4dae736eb4c9da5df, type: 3}
    - {fileID: 21300000, guid: 3fc6c545e1d659a47a3d02d71caf0817, type: 3}
    - {fileID: 21300000, guid: aa5922a1dcd603c41bdc8f3baf35bab0, type: 3}
    - {fileID: 21300000, guid: 7f3287fb5f75c3144bd8239b4b71e584, type: 3}
    - {fileID: 21300000, guid: dbcabcd5f47022b4e9b429cc6f89dbc7, type: 3}
    - {fileID: 21300000, guid: c3b5bd8e48b695a4e8c306a2b02d2972, type: 3}
    - {fileID: 21300000, guid: 49d264a4643721241a497b81c72776d0, type: 3}
    - {fileID: 21300000, guid: de175e1e6ffab174cb5129679cc83482, type: 3}
    - {fileID: 21300000, guid: 95ff1c13f125f9d479a52f718f7a6bae, type: 3}
    - {fileID: 21300000, guid: 99307413782869840991df835fd6469d, type: 3}
    - {fileID: 21300000, guid: d5b017e8ba2514e49ba986f8f4014642, type: 3}
    - {fileID: 21300000, guid: 2c6935efa3dd2c5449348c1bd4362d9b, type: 3}
    - {fileID: 21300000, guid: 3ad0b122d831e7c4baf7d8179fbdba5d, type: 3}
    - {fileID: 21300000, guid: f3a5fbfa2194f9d4c8edb1e76f6f9733, type: 3}
    - {fileID: 21300000, guid: 80a759d40770b3a469d2581b0aadf0a5, type: 3}
    - {fileID: 21300000, guid: c458c5433b4d55c4da7b73ecaeb24273, type: 3}
    - {fileID: 21300000, guid: ee3c0caa6acd951409065c60ce0bdbb8, type: 3}
    - {fileID: 21300000, guid: 63e53fdef233f2347a7029c50effebc2, type: 3}
    - {fileID: 21300000, guid: eb7fd62ca9fea3444ba0378be7833c32, type: 3}
    - {fileID: 21300000, guid: af5bdac4f7a2bb047819fdb34c3b2482, type: 3}
    - {fileID: 21300000, guid: fe1336dbc9e004049a43a593e7884e25, type: 3}
    - {fileID: 21300000, guid: 4aa1604a6ba89a84e9f0f76e70c780ca, type: 3}
    - {fileID: 21300000, guid: 25f5a245af8f8ac469088dd9d48ec380, type: 3}
    - {fileID: 21300000, guid: 44a1d41bd1102ef4099610c8029e8893, type: 3}
    - {fileID: 21300000, guid: 1998e45768dd7354e90298fc86df4fe8, type: 3}
    - {fileID: 21300000, guid: 8dc8ca2fc3651b64ab439b639bc9aa26, type: 3}
    - {fileID: 21300000, guid: 9b184ce45fb5764478b6dc798e7b6b99, type: 3}
    - {fileID: 21300000, guid: 6d45c75f1a824cd4b82a9cd94e493a23, type: 3}
    - {fileID: 21300000, guid: c78fcbfcc2354834d8794728721a9d39, type: 3}
    - {fileID: 21300000, guid: 90913f16ce8f11d47b334f3c4ea688c5, type: 3}
    - {fileID: 21300000, guid: adc2a409e9f83d446be1861c9c52a5d1, type: 3}
    - {fileID: 21300000, guid: 2e4a2daeae8f5e04dab11b8bc04130a4, type: 3}
    - {fileID: 21300000, guid: f5f7f3a4edb78f947b5647cd503bd60f, type: 3}
    - {fileID: 21300000, guid: a6e7a0668c6bc0040bd3823006df2499, type: 3}
    - {fileID: 21300000, guid: ab05d0caf9bd0eb4fa650d1a141dc9ff, type: 3}
    - {fileID: 21300000, guid: cd5d3da0973364b439e4178da726b605, type: 3}
    - {fileID: 21300000, guid: bf76e94ecb671a043bfcd9a0b9496d2f, type: 3}
    - {fileID: 21300000, guid: 1df40c3d2bf598647a5f32b748da3335, type: 3}
    - {fileID: 21300000, guid: 3f0d5b13c3ef2314ba43b42a8a0dd62d, type: 3}
    - {fileID: 21300000, guid: 73d0f56a806bdca419fa57ec10e68631, type: 3}
    - {fileID: 21300000, guid: 281f53efe041ff44b93db02866640799, type: 3}
    - {fileID: 21300000, guid: 7c24b886a475a2141873ff1ab28dd2a1, type: 3}
    - {fileID: 21300000, guid: bb9aaf87120183c45801de890ee3fbd8, type: 3}
    - {fileID: 21300000, guid: e009bb84707942c4ab077f2185a355e5, type: 3}
    - {fileID: 21300000, guid: c80297b4f61a36a468eef3409655bb13, type: 3}
    - {fileID: 21300000, guid: e9cb6534d570626498e80ed2db1a7950, type: 3}
    - {fileID: 21300000, guid: 8d73983c51822b94eafe4193e02969f3, type: 3}
    - {fileID: 21300000, guid: 29433aa9b3fe9574c82f84b645c6eea2, type: 3}
    - {fileID: 21300000, guid: 6994ca494e913c947bbf8b46b1c11e1a, type: 3}
    - {fileID: 21300000, guid: 9b7748a5dc0c23d429fad7c1b58010b8, type: 3}
    - {fileID: 21300000, guid: f98fdf25d50cc864782c2f965634891a, type: 3}
    - {fileID: 21300000, guid: d0f3c0754b2a6f7419bf08d197471eed, type: 3}
    - {fileID: 21300000, guid: 42daa2ff56f95504499933df246f714f, type: 3}
    - {fileID: 21300000, guid: e481f90c3575aa34083a3fae0a2bb8af, type: 3}
    - {fileID: 21300000, guid: ee7157b0191d0624684db2f69b067a5a, type: 3}
    - {fileID: 21300000, guid: efdf0545b1a99b74ab92a29a1b85237f, type: 3}
    - {fileID: 21300000, guid: 9538fa026aaabde409724988938607bd, type: 3}
    - {fileID: 21300000, guid: 8ea686d6d6352ca44903c98ba24bc849, type: 3}
    - {fileID: 21300000, guid: 6095393d8f4838840a2ce62bd1e24c76, type: 3}
    - {fileID: 21300000, guid: 7ec3a9d847e5a9549acb1e9af7718e6c, type: 3}
    - {fileID: 21300000, guid: 538d04cfa6e7272489de37b7b24351db, type: 3}
    - {fileID: 21300000, guid: 0fa1df57a95225b429979f4642894046, type: 3}
    - {fileID: 21300000, guid: 6ccc35232ca35b845b4bd1a8e113e3b6, type: 3}
    - {fileID: 21300000, guid: 3320cdc8279acea4eb6e13f0005a743d, type: 3}
    - {fileID: 21300000, guid: 443c72533121d2f4986fb4af1b984ab4, type: 3}
    - {fileID: 21300000, guid: 024478b0292ab874e88164b31c0cf61f, type: 3}
    - {fileID: 21300000, guid: 62cae1fe44a57f04aaecf2c80be65f77, type: 3}
    - {fileID: 21300000, guid: b0d3ae726e2c9c84eb525f6535485ee9, type: 3}
    - {fileID: 21300000, guid: 1bb75d332e2eb0142b7c34cd09829eea, type: 3}
    - {fileID: 21300000, guid: c1675a13d0ba746469b706e817d4f827, type: 3}
    - {fileID: 21300000, guid: 5d8b17cd8cb4a2346a6ca1a0fa4fc95b, type: 3}
    - {fileID: 21300000, guid: a0f53b1016d41df4080b46723751218b, type: 3}
    - {fileID: 21300000, guid: a1042e0b62e82564c86135e38012df9e, type: 3}
    - {fileID: 21300000, guid: c8c4f1d1194a47040b240995d7227598, type: 3}
    - {fileID: 21300000, guid: 27b4f8f54db9f9447a29ab15474813fd, type: 3}
    - {fileID: 21300000, guid: 862383b819b600c46a45585483f949fb, type: 3}
    - {fileID: 21300000, guid: 9b2ba3d45062e2c4680a70cbff582db0, type: 3}
    - {fileID: 21300000, guid: 6cec021dcb3a90d4f96d2716751f3619, type: 3}
    - {fileID: 21300000, guid: 5869f28582227404eba5ca5d001477e2, type: 3}
    - {fileID: 21300000, guid: 965a775bfe9a6c24f8e258b0a7ada870, type: 3}
    - {fileID: 21300000, guid: ff31794e47b5faa4194403fe8b064a1a, type: 3}
    - {fileID: 21300000, guid: a54cfdb7a4c21f1418291b1ec50a19c0, type: 3}
    - {fileID: 21300000, guid: aa0160a7d5a429f41be78678611f0ea9, type: 3}
    - {fileID: 21300000, guid: 15b704ec5b125e14a91c022f038c4c95, type: 3}
    - {fileID: 21300000, guid: 61eead3dc89be3b4baae3ddd53ea4f08, type: 3}
    - {fileID: 21300000, guid: 84399d28ee85d5d44af35074ac8bd179, type: 3}
    - {fileID: 21300000, guid: 5e23a6f05c34f4442bee27edcd6407d2, type: 3}
    - {fileID: 21300000, guid: d00382b6f43ede3408dfced1f4f65410, type: 3}
    - {fileID: 21300000, guid: af96b894e9f54914cade903a74d75a10, type: 3}
    - {fileID: 21300000, guid: 10c27c5b47bce6545a0bc258f357af7e, type: 3}
    - {fileID: 21300000, guid: a09c7a081435f4c4695dc24f6a0a81bd, type: 3}
    - {fileID: 21300000, guid: 6ffb13c681b0c9c4d8018556eb68fe32, type: 3}
    - {fileID: 21300000, guid: 39d082d2a7a7bec4491e4af454891fd5, type: 3}
    - {fileID: 21300000, guid: 8d3edd63939491d4fb31ff83d1fc0faa, type: 3}
  m_AnimationClipSettings:
    serializedVersion: 2
    m_AdditiveReferencePoseClip: {fileID: 0}
    m_AdditiveReferencePoseTime: 0
    m_StartTime: 0
    m_StopTime: 8.083333
    m_OrientationOffsetY: 0
    m_Level: 0
    m_CycleOffset: 0
    m_HasAdditiveReferencePose: 0
    m_LoopTime: 1
    m_LoopBlend: 0
    m_LoopBlendOrientation: 0
    m_LoopBlendPositionY: 0
    m_LoopBlendPositionXZ: 0
    m_KeepOriginalOrientation: 0
    m_KeepOriginalPositionY: 1
    m_KeepOriginalPositionXZ: 0
    m_HeightFromFeet: 0
    m_Mirror: 0
  m_EditorCurves: []
  m_EulerEditorCurves: []
  m_HasGenericRootTransform: 0
  m_HasMotionFloatCurves: 0
  m_GenerateMotionCurves: 0
  m_Events: []
